{
    "data": [
        {
            "email": "test@smartsheet.com",
            "name": "John Doe",
            "firstName": "John",
            "lastName": "Doe",
            "admin": false,
            "licensedSheetCreator": true,
            "groupAdmin": false,
            "resourceViewer": false,
            "id": 242165701390534,
            "status": "ACTIVE"
        },
        {
            "email": "test@smartsheet.com",
            "name": "John Doe",
            "firstName": "John",
            "lastName": "Doe",
            "admin": false,
            "licensedSheetCreator": true,
            "groupAdmin": false,
            "resourceViewer": false,
            "id": 242165701390534,
            "status": "ACTIVE"
        }
    ],
    "pageNumber": 1,
    "pageSize": 100,
    "totalCount": 418,
    "totalPages": 5
}
